%YAML 1.1
%TAG !u! tag:unity3d.com,2011:
--- !u!1 &1648903480662896
GameObject:
  m_ObjectHideFlags: 0
  m_CorrespondingSourceObject: {fileID: 0}
  m_PrefabInstance: {fileID: 0}
  m_PrefabAsset: {fileID: 0}
  serializedVersion: 6
  m_Component:
  - component: {fileID: 4869315498850984}
  - component: {fileID: 65751623654406776}
  - component: {fileID: 114477068802795716}
  m_Layer: 10
  m_Name: PlanetViewPrefabController
  m_TagString: Untagged
  m_Icon: {fileID: 0}
  m_NavMeshLayer: 0
  m_StaticEditorFlags: 0
  m_IsActive: 1
--- !u!4 &4869315498850984
Transform:
  m_ObjectHideFlags: 0
  m_CorrespondingSourceObject: {fileID: 0}
  m_PrefabInstance: {fileID: 0}
  m_PrefabAsset: {fileID: 0}
  m_GameObject: {fileID: 1648903480662896}
  m_LocalRotation: {x: 0, y: 0, z: 0, w: 1}
  m_LocalPosition: {x: 0, y: 0, z: 0}
  m_LocalScale: {x: 1, y: 1, z: 1}
  m_Children: []
  m_Father: {fileID: 0}
  m_RootOrder: 0
  m_LocalEulerAnglesHint: {x: 0, y: 0, z: 0}
--- !u!65 &65751623654406776
BoxCollider:
  m_ObjectHideFlags: 0
  m_CorrespondingSourceObject: {fileID: 0}
  m_PrefabInstance: {fileID: 0}
  m_PrefabAsset: {fileID: 0}
  m_GameObject: {fileID: 1648903480662896}
  m_Material: {fileID: 0}
  m_IsTrigger: 0
  m_Enabled: 1
  serializedVersion: 2
  m_Size: {x: 0.1, y: 0.1, z: 0.1}
  m_Center: {x: 0, y: 0, z: 0}
--- !u!114 &114477068802795716
MonoBehaviour:
  m_ObjectHideFlags: 0
  m_CorrespondingSourceObject: {fileID: 0}
  m_PrefabInstance: {fileID: 0}
  m_PrefabAsset: {fileID: 0}
  m_GameObject: {fileID: 1648903480662896}
  m_Enabled: 1
  m_EditorHideFlags: 0
  m_Script: {fileID: 11500000, guid: a4b80926deea8ae45b0de0916dde1c6e, type: 3}
  m_Name: 
  m_EditorClassIdentifier: 
  target:
    referenceId: 
    positionEntityIds: []
    name: 
    id: 
    speedLimit: 0
    referencePosition:
      x: 0
      y: 0
      z: 0
    updateTime: 0
    _count: 0
    _managerId: 
    _maxArmor: 0
    _currentArmor: 0
    _deleteStructure: 0
    constructionStatus: 2
    constructionProgress: 0
    structureBlueprintId: 
    constructionContractIds: []
    deltaTime: 1
    incomingShips: []
  station: {fileID: 1664201242571434, guid: 53b5474fce2a085498e0d3f6c0563745, type: 3}
  factoryPrefab: {fileID: 1604790007669864, guid: d7bdbf15c0b846448901a6013f182c9c,
    type: 3}
  driller: {fileID: 1931327929331542, guid: 72dccd10260a9a941bc831bff532b69f, type: 3}
  distributionCenterPrefab: {fileID: 1681351745714200, guid: 7c218dcd3568bd64db3623c1af5d354e,
    type: 3}
